                          Radoslaw Szkorla i Jakub Kocur
                                     Prezentuja:        
                       _    _                _                     
                      | |  | |              (_)                    
                      | |  | |_   _ ___  ___ _  __ _               
                      | |/\| | | | / __|/ __| |/ _` |              
                      \  /\  / |_| \__ \ (__| | (_| |              
                       \/  \/ \__, |___/\___|_|\__, |              
                               __/ |            __/ |              
                              |___/            |___/               
                        _                            _                
                       (_)                          (_)               
         _ __   ___    _ _ __  _____   _  ___ _ __  _  ___ _ __ __ _ 
        | '_ \ / _ \  | | '_ \|_  / | | |/ __| '_ \| |/ _ \ '__/ _` |
        | |_) | (_) | | | | | |/ /| |_| | (__| | | | |  __/ | | (_| |
        | .__/ \___/  |_|_| |_/___|\__, |\___|_| |_|_|\___|_|  \__,_|
        | |                         __/ |                            
        |_|                        |___/                             

		 Akademia Techniczno-Humanistyczna w Bielsku-Bialej
				    18.05.2016 r.
